{"games":[{"_id":"6a3ea3fa3d9ab0d483a21c60","title":"Grand Theft Auto VI","description":"The most anticipated game of the decade finally arrives. Return to Vice City and the surrounding state of Leonida in this massive open-world crime epic that pushes gaming technology to new heights. Play as Lucia and Jason in a modern-day Bonnie and Clyde narrative across a sprawling, hyper-detailed world. Every neighborhood has its own culture and rhythm. Dynamic world events, reactive AI, and an evolving ecosystem make Leonida feel alive. Improved combat mechanics include refined gunplay, deep hand-to-hand systems, and expanded vehicle combat. The online component launches with a全新的 shared-world experience featuring heists, businesses, and community events. Rockstar's signature storytelling, cutting-edge graphics, and infinite emergent gameplay redefine what video games can achieve. With ray-tracing, physics-driven destruction, and a soundtrack spanning decades of hits, GTA VI sets a new benchmark for interactive entertainment.","genre":["Action","Adventure","Crime"],"releaseDate":"2026-01-01T00:00:00.000Z","poster":"https://gtahaven.com/storage/grand-theft-auto-vi-jason-and-lucia-1024x576.jpg","averageRating":9.3,"totalRatings":7},{"_id":"6a3ea3fb3d9ab0d483a21c79","title":"Ghost of Yotei","description":"Set 300 years after the events of Ghost of Tsushima, a new Ghost rises in the shadow of Mount Yotei in feudal Japan's northern frontier. Play as Atsu, a warrior haunted by her past, armed with a new arsenal of weapons including dual katanas, chain sickles, and explosive powder bombs. The vast Ezo region features snow-capped mountains, dense forests, sprawling plains, and coastal villages, each with distinct weather and seasonal cycles that dynamically affect gameplay. Deep snow muffles footsteps but leaves tracks, rain extinguishes your bow, and fog limits visibility. New Ghost weapons expand tactical options: smoke bombs for escapes, wind chimes for distractions, and sticky bombs for traps. The stand-off system returns with new multi-enemy chain assassinations. A gripping story of vengeance, redemption, and identity unfolds against stunning landscapes rendered with Sucker Punch's signature visual artistry. Wind guides you to objectives, fireflies mark points of interest, and wildlife reacts to your presence.","genre":["Action","Adventure","Drama"],"releaseDate":"2025-01-01T00:00:00.000Z","poster":"https://image.api.playstation.com/vulcan/ap/rnd/202504/2116/49934c62a922417e86bd3fc61a59b116cf7ae51e91d9a9de.jpg","averageRating":8.4,"totalRatings":7},{"_id":"6a396c3c988df7a0f2d4c3d2","title":"Red Dead Redemption 2","description":"Rockstar's magnum opus is a peerless open-world Western that sets a new benchmark for immersion and storytelling. You play as Arthur Morgan, an outlaw grappling with his morality as the Wild West fades into modernity. The world is alive in ways no game has matched — animals have their own ecosystems, NPCs follow daily routines, and the weather shapes gameplay naturally. The camp system creates genuine emotional bonds with your gang members, making every loss hit hard. The Honor system subtly shifts dialogue, missions, and even the ending based on your actions. From the snow-capped mountains of Ambarino to the humid swamps of Lemoyne, every inch of this world tells a story. It is a patient, detail-obsessed masterpiece.","genre":["Action","Adventure","Drama"],"releaseDate":"2018-10-26T00:00:00.000Z","poster":"https://cdn.akamai.steamstatic.com/steam/apps/1174180/header.jpg","averageRating":9.1,"totalRatings":7},{"_id":"6a396c3c988df7a0f2d4c3ee","title":"Grand Theft Auto V","description":"More than a decade after release, GTA V remains a technical marvel and a cultural touchstone. Los Santos is one of the most detailed and believable open worlds ever created, a satirical take on Los Angeles that feels alive with activity. The three-protagonist structure lets you switch between Michael, Franklin, and Trevor on the fly, experiencing heists and missions from multiple perspectives. The writing is sharp and hilarious, skewering modern American culture with surgical precision. GTA Online has evolved into a massive persistent world with heists, businesses, races, and constant content updates. The modding community keeps the single-player experience fresh with everything from graphics overhauls to total conversions. It's a game that refuses to age.","genre":["Action","Adventure","Crime"],"releaseDate":"2013-01-01T00:00:00.000Z","poster":"https://wallpapercave.com/wp/wp1809630.jpg","averageRating":9.7,"totalRatings":6},{"_id":"6a396c3c988df7a0f2d4c3d3","title":"Ghost of Tsushima","description":"Sucker Punch's love letter to samurai cinema is a stunning open-world action game set during the first Mongol invasion of Japan. You play as Jin Sakai, a samurai who must abandon his noble code to defend his homeland using unconventional tactics. The world of Tsushima is breathtaking — fields of pampas grass sway in the wind, cherry blossoms drift through the air, and the guiding wind mechanic replaces cluttered waypoints with elegant navigation. Combat is precise and lethal, with standoffs that capture the tension of a samurai duel. The Kurosawa Mode filters the entire game into black and white, complete with film grain, as a tribute to classic cinema. The Iki Island expansion deepens Jin's backstory with emotional weight.","genre":["Action","Adventure","Drama"],"releaseDate":"2020-07-17T00:00:00.000Z","poster":"https://cdn.akamai.steamstatic.com/steam/apps/2215430/header.jpg","averageRating":9,"totalRatings":7},{"_id":"6a396c3c988df7a0f2d4c3e2","title":"Resident Evil 4 Remake","description":"Capcom's greatest survival horror game is reborn with modern gameplay while preserving everything that made the original legendary. The over-the-shoulder shooting is tighter than ever, with knife parries adding new defensive options. The Spanish village setting is expanded with more areas to explore and secrets to uncover. The story of Leon Kennedy's rescue mission is presented with new gravitas, with improved voice acting and deeper character moments. The Merchant returns with more upgrades, and the attaché case inventory management is as satisfying as ever. The Separate Ways DLC adds Ada Wong's perspective with unique missions. It honors the original while confidently standing on its own.","genre":["Horror","Action","Thriller"],"releaseDate":"2023-03-24T00:00:00.000Z","poster":"https://cdn.akamai.steamstatic.com/steam/apps/2050650/header.jpg","averageRating":8.7,"totalRatings":7},{"_id":"6a3eacc2d0554c1b3fa0fe56","title":"Resident Evil 2 Remake","description":"The survival horror classic returns with a stunning remake. Play as Leon Kennedy and Claire Redfield in Raccoon City as a deadly virus transforms the population into ravenous zombies. Explore the iconic police station, solve intricate puzzles, and face the relentless Tyrant in this masterful reimagining. With over-the-shoulder camera, updated controls, and breathtaking visuals, this remake sets a new standard for horror games.","genre":["Horror","Action","Thriller"],"releaseDate":"2019-01-25T00:00:00.000Z","poster":"https://shared.akamai.steamstatic.com/store_item_assets/steam/apps/883710/ss_1392581cd29817e44099cf05416b70ffb159c58b.1920x1080.jpg?t=1779433152","averageRating":0,"totalRatings":0},{"_id":"6a3eacc2d0554c1b3fa0fe5e","title":"Resident Evil 7: Biohazard","description":"A radical return to survival horror roots in first-person perspective. Investigate a derelict plantation in Louisiana in search of your missing wife, only to discover the Baker family has been infected by a terrifying mold-based virus. Claustrophobic corridors, limited resources, and visceral combat create an intensely personal horror experience. The game that reinvented the franchise for a new generation.","genre":["Horror","Action","Thriller"],"releaseDate":"2017-01-24T00:00:00.000Z","poster":"https://shared.akamai.steamstatic.com/store_item_assets/steam/apps/418370/ss_d07fd9fca3644350782356667ce78d436c574680.1920x1080.jpg?t=1778464947","averageRating":0,"totalRatings":0}],"pagination":{"currentPage":1,"totalPages":3,"totalCount":21,"hasNextPage":true,"hasPrevPage":false}}